…
```
## Warning: package 'ggplot2' was built under R version 3.3.2
```
## Loading and preprocessing the data
The provided activity.csv contains the step count in 5 minute intervals over two months during October and November, 2012.  The data was read in using read.csv(), and then converted into a tbl using tbl_df.

```r
actdat<- read.csv("activity.csv")
actdat<- tbl_df(actdat)
print(actdat)
```

```
## # A tibble: 17,568 × 3
##    steps       date interval
##    <int>     <fctr>    <int>
## 1     NA 2012-10-01        0
## 2     NA 2012-10-01        5
## 3     NA 2012-10-01       10
## 4     NA 2012-10-01       15
## 5     NA 2012-10-01       20
## 6     NA 2012-10-01       25
## 7     NA 2012-10-01       30
## 8     NA 2012-10-01       35
## 9     NA 2012-10-01       40
## 10    NA 2012-10-01       45
## # ... with 17,558 more rows
```
…
## Are there differences in activity patterns between weekdays and weekends?
Using the data set with the replaced values the activity difference between the weekdays, Monday-Friday, and the weekend, Saturday and Sunday, will be examined.

```r
actdat2 <- mutate(actdat2, WeekDay=as.factor(ifelse(weekdays(as.POSIXlt(date)) %in% c("Saturday","Sunday"),"weekend","weekday") ) )
```

```r
steps_IntMean_week <- group_by(actdat2,WeekDay,interval) %>% summarize(meanInterval=mean(steps,na.rm=TRUE))

print(steps_IntMean_week)
```

```
## Source: local data frame [576 x 3]
## Groups: WeekDay [?]
## 
##    WeekDay interval meanInterval
##     <fctr>    <int>        <dbl>
## 1  weekday        0    2.3179245
## 2  weekday        5    0.4584906
## 3  weekday       10    0.1783019
## 4  weekday       15    0.2037736
## 5  weekday       20    0.1018868
## 6  weekday       25    1.5273585
## 7  weekday       30    0.7132075
## 8  weekday       35    1.1716981
## 9  weekday       40    0.0000000
## 10 weekday       45    1.8367925
## # ... with 566 more rows
```
…
